Modeling
…
#diabetes_binary_health_indicators_BRFSS2015.csv
#dbhi = diabetes binary health indicators
data <- read_csv("diabetes_binary_health_indicators_BRFSS2015.csv")

Rows: 253680 Columns: 22
── Column specification ────────────────────────────────────────────────────────
Delimiter: ","
dbl (22): Diabetes_binary, HighBP, HighChol, CholCheck, BMI, Smoker, Stroke,...

ℹ Use `spec()` to retrieve the full column specification for this data.
ℹ Specify the column types or set `show_col_types = FALSE` to quiet this message.

data

# A tibble: 253,680 × 22
   Diabetes_binary HighBP HighChol CholCheck   BMI Smoker Stroke
             <dbl>  <dbl>    <dbl>     <dbl> <dbl>  <dbl>  <dbl>
 1               0      1        1         1    40      1      0
 2               0      0        0         0    25      1      0
 3               0      1        1         1    28      0      0
 4               0      1        0         1    27      0      0
 5               0      1        1         1    24      0      0
 6               0      1        1         1    25      1      0
 7               0      1        0         1    30      1      0
 8               0      1        1         1    25      1      0
 9               1      1        1         1    30      1      0
10               0      0        0         1    24      0      0
# ℹ 253,670 more rows
# ℹ 15 more variables: HeartDiseaseorAttack <dbl>, PhysActivity <dbl>,
#   Fruits <dbl>, Veggies <dbl>, HvyAlcoholConsump <dbl>, AnyHealthcare <dbl>,
#   NoDocbcCost <dbl>, GenHlth <dbl>, MentHlth <dbl>, PhysHlth <dbl>,
#   DiffWalk <dbl>, Sex <dbl>, Age <dbl>, Education <dbl>, Income <dbl>
…
tree_grid <- grid_regular(cost_complexity(),
                          #min_n(),
                          tree_depth(),
                          levels = c(5, 5))

tree_grid

# A tibble: 25 × 2
   cost_complexity tree_depth
             <dbl>      <int>
 1    0.0000000001          1
 2    0.0000000178          1
 3    0.00000316            1
 4    0.000562              1
 5    0.1                   1
 6    0.0000000001          4
 7    0.0000000178          4
 8    0.00000316            4
 9    0.000562              4
10    0.1                   4
# ℹ 15 more rows

This generates 25 (5x5) candidate decision tree models.

tree_fits <- tree_wkf |> 
  tune_grid(resamples = dbhi_5_fold,
            metrics=metric_set(mn_log_loss),
            grid = tree_grid)
tree_fits |>
  collect_metrics()

# A tibble: 25 × 8
   cost_complexity tree_depth .metric     .estimator  mean     n std_err .config
             <dbl>      <int> <chr>       <chr>      <dbl> <int>   <dbl> <chr>  
 1    0.0000000001          1 mn_log_loss binary     0.402     5 7.11e-4 Prepro…
 2    0.0000000178          1 mn_log_loss binary     0.402     5 7.11e-4 Prepro…
 3    0.00000316            1 mn_log_loss binary     0.402     5 7.11e-4 Prepro…
 4    0.000562              1 mn_log_loss binary     0.402     5 7.11e-4 Prepro…
 5    0.1                   1 mn_log_loss binary     0.402     5 7.11e-4 Prepro…
 6    0.0000000001          4 mn_log_loss binary     0.402     5 7.11e-4 Prepro…
 7    0.0000000178          4 mn_log_loss binary     0.402     5 7.11e-4 Prepro…
 8    0.00000316            4 mn_log_loss binary     0.402     5 7.11e-4 Prepro…
 9    0.000562              4 mn_log_loss binary     0.402     5 7.11e-4 Prepro…
10    0.1                   4 mn_log_loss binary     0.402     5 7.11e-4 Prepro…
# ℹ 15 more rows
…
Our best model has a tree_depth of 15 (this minimizes the mean log loss).

Arrange by the mean log loss:

tree_fits |>
  collect_metrics() |>
  arrange(mean)

# A tibble: 25 × 8
   cost_complexity tree_depth .metric     .estimator  mean     n std_err .config
             <dbl>      <int> <chr>       <chr>      <dbl> <int>   <dbl> <chr>  
 1    0.0000000001         15 mn_log_loss binary     0.387     5 6.48e-4 Prepro…
 2    0.0000000178         15 mn_log_loss binary     0.387     5 6.48e-4 Prepro…
 3    0.00000316           15 mn_log_loss binary     0.387     5 6.48e-4 Prepro…
 4    0.0000000001         11 mn_log_loss binary     0.387     5 6.40e-4 Prepro…
 5    0.0000000178         11 mn_log_loss binary     0.387     5 6.40e-4 Prepro…
 6    0.00000316           11 mn_log_loss binary     0.387     5 6.40e-4 Prepro…
 7    0.0000000001          8 mn_log_loss binary     0.391     5 3.08e-3 Prepro…
 8    0.0000000178          8 mn_log_loss binary     0.391     5 3.08e-3 Prepro…
 9    0.00000316            8 mn_log_loss binary     0.391     5 3.08e-3 Prepro…
10    0.0000000001          1 mn_log_loss binary     0.402     5 7.11e-4 Prepro…
# ℹ 15 more rows
…
